{
  "code": 200,
  "meta": {
    "pagination": {
      "total": 3119,
      "pages": 156,
      "page": 1,
      "limit": 20
    }
  },
  "data": [
    {
      "id": 3301,
      "name": "Advaya Somayaji",
      "email": "advaya_somayaji@sawayn.co",
      "gender": "male",
      "status": "inactive"
    },
    {
      "id": 3256,
      "name": "Mr. Sukanya Acharya",
      "email": "sukanya_acharya_mr@leannon-shields.co",
      "gender": "female",
      "status": "active"
    },
    {
      "id": 3254,
      "name": "Sanya Nayar",
      "email": "sanya_nayar@hansen.org",
      "gender": "male",
      "status": "active"
    },
    {
      "id": 3253,
      "name": "Bankim Khan",
      "email": "bankim_khan@stroman.co",
      "gender": "female",
      "status": "active"
    },
    {
      "id": 3252,
      "name": "Kashyapi Reddy",
      "email": "reddy_kashyapi@rosenbaum-effertz.net",
      "gender": "male",
      "status": "inactive"
    },
    {
      "id": 3251,
      "name": "Chandra Saini VM",
      "email": "saini_chandra_vm@ankunding.io",
      "gender": "female",
      "status": "active"
    },
    {
      "id": 3217,
      "name": "Amb. Aadidev Iyengar",
      "email": "aadidev_amb_iyengar@welch.name",
      "gender": "male",
      "status": "inactive"
    },
    {
      "id": 3209,
      "name": "Ojaswini Bhattathiri",
      "email": "bhattathiri_ojaswini@west-bergnaum.co",
      "gender": "male",
      "status": "active"
    },
    {
      "id": 3208,
      "name": "Sarla Nehru",
      "email": "sarla_nehru@christiansen.info",
      "gender": "female",
      "status": "inactive"
    },
    {
      "id": 3205,
      "name": "Fr. Agnimitra Verma",
      "email": "verma_fr_agnimitra@aufderhar.info",
      "gender": "male",
      "status": "active"
    },
    {
      "id": 3204,
      "name": "Amaresh Guneta",
      "email": "amaresh_guneta@schmitt.name",
      "gender": "male",
      "status": "inactive"
    },
    {
      "id": 3203,
      "name": "Balachandra Patel",
      "email": "balachandra_patel@schuppe.io",
      "gender": "male",
      "status": "active"
    },
    {
      "id": 3202,
      "name": "Dhanpati Dhawan",
      "email": "dhawan_dhanpati@keebler.com",
      "gender": "male",
      "status": "inactive"
    },
    {
      "id": 3198,
      "name": "Mohan Talwar",
      "email": "mohan_talwar@bergnaum.name",
      "gender": "male",
      "status": "active"
    },
    {
      "id": 3197,
      "name": "Chandak Adiga",
      "email": "adiga_chandak@rempel.co",
      "gender": "male",
      "status": "active"
    },
    {
      "id": 3196,
      "name": "Bhoopati Asan",
      "email": "bhoopati_asan@rempel.net",
      "gender": "female",
      "status": "inactive"
    },
    {
      "id": 3195,
      "name": "Chinmayanand Nehru",
      "email": "chinmayanand_nehru@wyman-kutch.net",
      "gender": "male",
      "status": "active"
    },
    {
      "id": 3194,
      "name": "Krishna Dutta",
      "email": "krishna_dutta@stanton.com",
      "gender": "female",
      "status": "active"
    },
    {
      "id": 3193,
      "name": "Padma Bharadwaj I",
      "email": "padma_bharadwaj_i@mraz-heller.info",
      "gender": "female",
      "status": "inactive"
    },
    {
      "id": 3192,
      "name": "Javas Gandhi",
      "email": "javas_gandhi@frami.io",
      "gender": "female",
      "status": "inactive"
    }
  ]
}